{
    "id": "integer",
    "title": "string",
    "price": "number",
    "description": "string",
    "category": "string",
    "image": "string",
    "rating": {
        "rate": "number",
        "count": "integer"
    }
}